##################################################
# GENERAL PARAMETERS                             #
##################################################
Steps_mc: "20000"
FilePDB: "off"
Fcoordinates: "fort.2"
Fetas: "fort.107"
Fatoms: "atoms.txt" 
Fbonds: "bonds.txt"
Ngr: "25"
Temperature: "6.0"
Pext: "1.0"
Tau_T: "0.2"
Tau_P: "0.2"
AtomxMol: "1"


##################################################
# Integrator Parameters
##################################################
dt: "0.002"

##################################################
# Alfa parameter in Coulomb
##################################################
Alfa: "0.27"
AlfaLJ: "0.30"
SPME: "1"     ## 1=True, 0=False
EW_Type: "1"

##################################################
# KMAX parameter in Ewald
##################################################
KmaxX: "9.0"
KmaxY: "9.0"
KmaxZ: "9.0"

##################################################
# Rcut and Rlist 
##################################################
Rcut: "4.0"
Rlist: "4.5"

Shake: "1"    #1=True 0=False

##################################################
# ATOM PARAMETERS REFERENCE                      #
##################################################
Sigma: "3.405"
Epsilon: "119.8"
Mass: "39.95"
Massmolar: "39.95"

#################################################
# ENSAMBLE
################################################
Ensamble: "2"   # 1=NVE, 2=NVT 3=NPT 

#################################################
##  Variables thermostate
#################################################
# GPU Device                                    #
#################################################
#Device: "0"

#################################################
# Printeo
################################################
Sstep: "100"
Fstep: "10"
Ffilm: "100"
Fdelta: "1"


Nmts1: "1"
Nmts2: "1"
Nmts3: "1"

