100 6.447632789611816
200 6.209583282470703
300 5.917578220367432
400 6.006137371063232
500 5.767646789550781
600 6.134722709655762
700 6.122287750244141
800 5.844371795654297
900 5.997797966003418
1000 6.120168685913086
1100 5.794861316680908
1200 5.957106590270996
1300 5.997191429138184
1400 6.099979877471924
1500 6.038723945617676
1600 6.046537399291992
1700 5.927691936492920
1800 6.160000324249268
1900 6.028236865997314
2000 6.022884368896484
2100 5.995706081390381
2200 5.549509525299072
2300 6.112996578216553
2400 5.954350471496582
2500 5.995749950408936
2600 5.800624370574951
2700 6.102572441101074
2800 6.145747184753418
2900 5.917488098144531
3000 5.901333808898926
3100 5.899436473846436
3200 5.923270225524902
3300 5.909663677215576
3400 5.908772945404053
3500 5.619989395141602
3600 6.108053684234619
3700 5.968680381774902
3800 5.949144363403320
3900 5.855237483978271
4000 6.024878025054932
4100 5.689360618591309
4200 6.037254810333252
4300 6.079084396362305
4400 5.715820789337158
4500 5.957895755767822
4600 5.953287601470947
4700 5.887902259826660
4800 6.085052967071533
4900 6.235358238220215
5000 6.059516429901123
5100 5.832044124603271
5200 6.213549137115479
5300 6.016918182373047
5400 5.908213138580322
5500 6.265998840332031
5600 6.180656909942627
5700 5.624964237213135
5800 5.847409725189209
5900 6.283428192138672
6000 5.469835281372070
6100 5.944510459899902
6200 5.986363887786865
6300 5.758840560913086
6400 5.920318603515625
6500 6.151288032531738
6600 6.083429813385010
6700 5.836265087127686
6800 6.139554500579834
6900 5.969136714935303
7000 5.886401653289795
7100 6.093729019165039
7200 6.141129016876221
7300 5.925566196441650
7400 6.099511623382568
7500 6.248242378234863
7600 5.862912178039551
7700 5.930206775665283
7800 5.960348606109619
7900 5.781521797180176
8000 5.940348625183105
8100 6.129192829132080
8200 6.173166751861572
8300 5.747096061706543
8400 6.109890460968018
8500 5.967157840728760
8600 5.944268226623535
8700 6.101716041564941
8800 5.920269489288330
8900 6.103195190429688
9000 5.980846405029297
9100 5.971377849578857
9200 6.140635013580322
9300 6.284495830535889
9400 5.909236907958984
9500 6.110281944274902
9600 5.931856632232666
9700 5.919364452362061
9800 5.953178882598877
9900 6.420197010040283
10000 6.198108196258545
10100 5.798652172088623
10200 6.250820636749268
10300 5.874925136566162
10400 5.824680328369141
10500 6.176479339599609
10600 5.826737880706787
10700 6.268436908721924
10800 5.985837936401367
10900 5.997107028961182
11000 5.808570861816406
11100 5.882956981658936
11200 6.202579498291016
11300 5.840877532958984
11400 6.205837726593018
11500 6.063152790069580
11600 5.869112968444824
11700 6.305874347686768
11800 5.795094013214111
11900 5.759916305541992
12000 6.182079315185547
12100 5.862417697906494
12200 6.058886528015137
12300 6.020235538482666
12400 6.181879520416260
12500 6.000919342041016
12600 5.830493927001953
12700 6.299063205718994
12800 5.699310302734375
12900 5.770203113555908
13000 6.057742118835449
13100 6.463629722595215
13200 5.866185665130615
13300 5.968614578247070
13400 5.948053836822510
13500 6.140081405639648
13600 6.160981178283691
13700 5.938560962677002
13800 5.858808517456055
13900 6.013576984405518
14000 5.649896144866943
14100 5.766270160675049
14200 6.019618511199951
14300 6.086879253387451
14400 6.181879043579102
14500 6.007678985595703
14600 5.806552410125732
14700 5.994637966156006
14800 6.207125186920166
14900 6.034035682678223
15000 5.830345630645752
15100 6.270977020263672
15200 5.681329250335693
15300 5.986659526824951
15400 5.662814140319824
15500 6.349799156188965
15600 5.898281574249268
15700 5.966275215148926
15800 6.199628353118896
15900 5.871506690979004
16000 6.113147735595703
16100 5.902618885040283
16200 6.243829250335693
16300 5.869925975799561
16400 6.047188282012939
16500 5.867664337158203
16600 5.845960617065430
16700 6.167092323303223
16800 5.964728832244873
16900 5.856047630310059
17000 5.905595779418945
17100 5.677893638610840
17200 6.026654243469238
17300 6.017819404602051
17400 5.883865833282471
17500 5.712950706481934
17600 5.994337081909180
17700 6.223400592803955
17800 6.014491081237793
17900 5.809373378753662
18000 6.197359085083008
18100 6.199430465698242
18200 5.714182376861572
18300 5.991599082946777
18400 5.892139434814453
18500 5.993664741516113
18600 5.599265098571777
18700 6.143151760101318
18800 6.310535430908203
18900 6.150343894958496
19000 5.781215190887451
19100 6.122279167175293
19200 5.851850509643555
19300 5.942272663116455
19400 6.273025512695312
19500 5.835825443267822
19600 5.722961425781250
19700 5.832982063293457
19800 5.954706192016602
19900 6.176838397979736
20000 5.810999393463135
