100 16.368608474731445
200 16.368839263916016
300 16.368282318115234
400 16.369123458862305
500 16.368989944458008
600 16.369180679321289
700 16.368564605712891
800 16.368556976318359
900 16.369138717651367
1000 16.369049072265625
1100 16.368499755859375
1200 16.368600845336914
1300 16.368808746337891
1400 16.368766784667969
1500 16.368753433227539
1600 16.368354797363281
1700 16.368738174438477
1800 16.368547439575195
1900 16.367980957031250
2000 16.368675231933594
2100 16.368431091308594
2200 16.368398666381836
2300 16.368379592895508
2400 16.367900848388672
2500 16.367565155029297
2600 16.367748260498047
2700 16.367650985717773
2800 16.368480682373047
2900 16.367919921875000
3000 16.367620468139648
3100 16.367588043212891
3200 16.367662429809570
3300 16.367925643920898
3400 16.367664337158203
3500 16.367769241333008
3600 16.367803573608398
3700 16.368076324462891
3800 16.367807388305664
3900 16.368019104003906
4000 16.368148803710938
4100 16.368104934692383
4200 16.368240356445312
4300 16.368400573730469
4400 16.368354797363281
4500 16.367950439453125
4600 16.368400573730469
4700 16.368356704711914
4800 16.368591308593750
4900 16.368825912475586
5000 16.369033813476562
5100 16.368465423583984
5200 16.368421554565430
5300 16.368274688720703
5400 16.368589401245117
5500 16.368789672851562
5600 16.368423461914062
5700 16.367898941040039
5800 16.368072509765625
5900 16.368663787841797
6000 16.367410659790039
6100 16.367900848388672
6200 16.367725372314453
6300 16.367383956909180
6400 16.368087768554688
6500 16.367778778076172
6600 16.367767333984375
6700 16.368099212646484
6800 16.367162704467773
6900 16.367778778076172
7000 16.367734909057617
7100 16.367010116577148
7200 16.367927551269531
7300 16.367597579956055
7400 16.367513656616211
7500 16.366735458374023
7600 16.367483139038086
7700 16.367034912109375
7800 16.367408752441406
7900 16.367645263671875
8000 16.366973876953125
8100 16.367206573486328
8200 16.367435455322266
8300 16.367433547973633
8400 16.367271423339844
8500 16.367532730102539
8600 16.367313385009766
8700 16.367076873779297
8800 16.367649078369141
8900 16.367511749267578
9000 16.367343902587891
9100 16.367172241210938
9200 16.367334365844727
9300 16.367027282714844
9400 16.367460250854492
9500 16.366909027099609
9600 16.366970062255859
9700 16.366939544677734
9800 16.366588592529297
9900 16.366844177246094
10000 16.367340087890625
10100 16.366718292236328
10200 16.366809844970703
10300 16.367340087890625
10400 16.367015838623047
10500 16.367023468017578
10600 16.366306304931641
10700 16.366706848144531
10800 16.366626739501953
10900 16.366771697998047
11000 16.367126464843750
11100 16.366918563842773
11200 16.366985321044922
11300 16.366619110107422
11400 16.366338729858398
11500 16.366853713989258
11600 16.366580963134766
11700 16.366230010986328
11800 16.366046905517578
11900 16.366796493530273
12000 16.366744995117188
12100 16.366680145263672
12200 16.366828918457031
12300 16.366527557373047
12400 16.366264343261719
12500 16.365879058837891
12600 16.366285324096680
12700 16.366188049316406
12800 16.366193771362305
12900 16.366170883178711
13000 16.366447448730469
13100 16.366647720336914
13200 16.366603851318359
13300 16.366439819335938
13400 16.366104125976562
13500 16.366619110107422
13600 16.366607666015625
13700 16.366228103637695
13800 16.366470336914062
13900 16.366741180419922
14000 16.366308212280273
14100 16.366451263427734
14200 16.366283416748047
14300 16.366121292114258
14400 16.366161346435547
14500 16.366598129272461
14600 16.366193771362305
14700 16.366107940673828
14800 16.365688323974609
14900 16.365688323974609
15000 16.365032196044922
15100 16.365846633911133
15200 16.365772247314453
15300 16.365743637084961
15400 16.365390777587891
15500 16.365383148193359
15600 16.365451812744141
15700 16.365768432617188
15800 16.366094589233398
15900 16.365827560424805
16000 16.365558624267578
16100 16.366058349609375
16200 16.365783691406250
16300 16.365978240966797
16400 16.365926742553711
16500 16.365859985351562
16600 16.365512847900391
16700 16.365650177001953
16800 16.365909576416016
16900 16.365730285644531
17000 16.365825653076172
17100 16.365911483764648
17200 16.365617752075195
17300 16.365627288818359
17400 16.365718841552734
17500 16.365329742431641
17600 16.365150451660156
17700 16.365386962890625
17800 16.365327835083008
17900 16.365909576416016
18000 16.366205215454102
18100 16.365627288818359
18200 16.365470886230469
18300 16.365705490112305
18400 16.365627288818359
18500 16.365848541259766
18600 16.365673065185547
18700 16.365777969360352
18800 16.366256713867188
18900 16.365530014038086
19000 16.365242004394531
19100 16.365484237670898
19200 16.365665435791016
19300 16.364746093750000
19400 16.364635467529297
19500 16.364883422851562
19600 16.364994049072266
19700 16.364856719970703
19800 16.364410400390625
19900 16.364364624023438
20000 16.364692687988281
