100 6.015299320220947
200 5.865613937377930
300 5.845508098602295
400 6.319078445434570
500 6.251792907714844
600 5.683313369750977
700 5.881889343261719
800 6.112540245056152
900 6.126618385314941
1000 5.953745365142822
1100 5.998219966888428
1200 5.927891731262207
1300 6.342670917510986
1400 6.207018852233887
1500 5.982753276824951
1600 6.051083564758301
1700 5.828765869140625
1800 6.221064090728760
1900 6.079000949859619
2000 5.986793041229248
2100 5.574377536773682
2200 5.720142364501953
2300 6.389184474945068
2400 6.259331226348877
2500 5.964622497558594
2600 5.727887630462646
2700 5.892611026763916
2800 6.078807830810547
2900 6.518924713134766
3000 5.933327674865723
3100 5.808393955230713
3200 6.146233081817627
3300 6.413182258605957
3400 6.215949535369873
3500 5.720574855804443
3600 5.750380039215088
3700 6.037652969360352
3800 6.126918315887451
3900 6.038453102111816
4000 5.858705043792725
4100 6.012109279632568
4200 5.937642097473145
4300 5.801677703857422
4400 5.784025192260742
4500 5.844388961791992
4600 6.134812831878662
4700 5.811256408691406
4800 6.124025344848633
4900 6.167807579040527
5000 6.015086174011230
5100 5.937836170196533
5200 6.025101661682129
5300 6.110523223876953
5400 6.102714061737061
5500 5.846241474151611
5600 6.189146995544434
5700 6.153760910034180
5800 6.110548496246338
5900 6.033119201660156
6000 5.911077022552490
6100 5.944246768951416
6200 6.254314422607422
6300 5.997451305389404
6400 5.656966209411621
6500 5.609951496124268
6600 6.061955928802490
6700 6.268884658813477
6800 6.193618774414062
6900 5.814218044281006
7000 5.814061641693115
7100 5.818778514862061
7200 6.228368759155273
7300 6.211705684661865
7400 6.034410476684570
7500 5.921576023101807
7600 6.090110301971436
7700 6.098938941955566
7800 6.265172958374023
7900 6.144421100616455
8000 5.720915317535400
8100 6.195630073547363
8200 6.039695262908936
8300 5.837308406829834
8400 6.030076980590820
8500 5.944270133972168
8600 6.236463546752930
8700 6.217621803283691
8800 5.980675220489502
8900 5.900086402893066
9000 5.907346725463867
9100 6.003556728363037
9200 6.040094852447510
9300 6.133439064025879
9400 6.285123348236084
9500 6.227843761444092
9600 5.656546592712402
9700 5.778685569763184
9800 6.150310039520264
9900 6.318237781524658
10000 5.822952270507812
10100 5.945475101470947
10200 5.872799396514893
10300 6.100335597991943
10400 5.911584854125977
10500 6.204652309417725
10600 5.923374652862549
10700 5.809752464294434
10800 6.032685279846191
10900 6.066631793975830
11000 5.832012176513672
11100 6.106120109558105
11200 5.962567329406738
11300 5.884244918823242
11400 6.021201610565186
11500 6.073510646820068
11600 6.022083282470703
11700 6.003870487213135
11800 5.849834442138672
11900 5.837486743927002
12000 6.231984138488770
12100 6.231509208679199
12200 6.094740390777588
12300 5.988452434539795
12400 5.788616180419922
12500 6.206443309783936
12600 5.992899894714355
12700 6.159275054931641
12800 6.119226932525635
12900 6.044751644134521
13000 5.917511940002441
13100 5.801691055297852
13200 5.957108974456787
13300 6.134283542633057
13400 5.976260185241699
13500 6.017643451690674
13600 5.717136383056641
13700 5.840112686157227
13800 6.368290424346924
13900 6.098665714263916
14000 5.870356559753418
14100 5.780626773834229
14200 6.032061100006104
14300 5.953192234039307
14400 5.898867607116699
14500 5.821212291717529
14600 5.867534637451172
14700 6.145770549774170
14800 6.252768516540527
14900 6.010749816894531
15000 5.933622360229492
15100 5.916420459747314
15200 5.931893825531006
15300 6.229265689849854
15400 6.018772602081299
15500 6.125535964965820
15600 6.256644725799561
15700 6.207019805908203
15800 5.833182334899902
15900 6.012177467346191
16000 5.982548236846924
16100 6.071696281433105
16200 6.060214996337891
16300 5.959844112396240
16400 6.023280620574951
16500 5.979006767272949
16600 6.000761508941650
16700 6.046421527862549
16800 6.263135910034180
16900 5.878878593444824
17000 5.768984794616699
17100 6.213240146636963
17200 6.194178104400635
17300 5.818783760070801
17400 5.717674732208252
17500 6.007313251495361
17600 6.384376049041748
17700 5.868417263031006
17800 5.683517456054688
17900 6.185417175292969
18000 6.601912975311279
18100 6.125606060028076
18200 5.685608863830566
18300 5.795926094055176
18400 6.236910820007324
18500 6.122432708740234
18600 5.946968555450439
18700 6.105726718902588
18800 5.953710079193115
18900 6.112033843994141
19000 6.106504917144775
19100 5.942712306976318
19200 5.961774826049805
19300 5.971093654632568
19400 6.066322803497314
19500 5.936295032501221
19600 5.819509029388428
19700 5.908316612243652
19800 5.917307853698730
19900 5.938086032867432
20000 5.923808097839355
