100 -2.561889648437500
200 -2.132717847824097
300 -2.284842252731323
400 -2.378946304321289
500 -2.394138097763062
600 -2.223884344100952
700 -2.275592327117920
800 -2.375643014907837
900 -2.346614599227905
1000 -2.426687717437744
1100 -2.389687776565552
1200 -2.263377189636230
1300 -2.278684854507446
1400 -2.257098436355591
1500 -2.270301342010498
1600 -1.968161106109619
1700 -2.417613506317139
1800 -2.073326349258423
1900 -2.181216239929199
2000 -2.272641420364380
2100 -2.404513120651245
2200 -2.155881643295288
2300 -2.351806879043579
2400 -2.109619379043579
2500 -2.334769010543823
2600 -2.051964998245239
2700 -2.370726585388184
2800 -2.365498542785645
2900 -2.059873819351196
3000 -1.918476700782776
3100 -2.394200563430786
3200 -2.402352333068848
3300 -2.290268898010254
3400 -2.317882776260376
3500 -2.291917085647583
3600 -2.465720653533936
3700 -2.256010770797729
3800 -2.127225160598755
3900 -2.240638494491577
4000 -2.193608999252319
4100 -2.242038488388062
4200 -2.278013706207275
4300 -2.222637653350830
4400 -2.226390838623047
4500 -2.363698244094849
4600 -2.560817956924438
4700 -2.141186952590942
4800 -2.191059589385986
4900 -2.393681287765503
5000 -2.443067550659180
5100 -2.512770414352417
5200 -2.088694572448730
5300 -2.264507532119751
5400 -2.394239425659180
5500 -2.404922485351562
5600 -2.329221010208130
5700 -2.463687419891357
5800 -2.140260934829712
5900 -2.411248922348022
6000 -2.510484695434570
6100 -2.134084701538086
6200 -2.243280649185181
6300 -2.255378961563110
6400 -2.297694206237793
6500 -2.224101781845093
6600 -2.370211839675903
6700 -2.379130125045776
6800 -2.166553735733032
6900 -2.416413307189941
7000 -2.244130849838257
7100 -2.696467638015747
7200 -2.241609334945679
7300 -2.409037351608276
7400 -2.505966186523438
7500 -2.302376747131348
7600 -2.172836780548096
7700 -2.436804533004761
7800 -2.401553392410278
7900 -2.477796554565430
8000 -2.361736059188843
8100 -2.195863962173462
8200 -2.399218797683716
8300 -2.211769104003906
8400 -2.303555250167847
8500 -2.616243362426758
8600 -2.371706724166870
8700 -2.258899211883545
8800 -2.477822303771973
8900 -2.418091773986816
9000 -2.433326482772827
9100 -2.255836725234985
9200 -2.381285667419434
9300 -2.289216995239258
9400 -2.367701053619385
9500 -2.401755332946777
9600 -2.237502813339233
9700 -2.323154687881470
9800 -2.421613931655884
9900 -2.333641052246094
10000 -2.115271568298340
10100 -2.342188119888306
10200 -2.178828001022339
10300 -2.349164009094238
10400 -2.210190773010254
10500 -2.330564260482788
10600 -2.352337121963501
10700 -2.342527389526367
10800 -2.371523618698120
10900 -2.426083803176880
11000 -2.403970718383789
11100 -2.563025236129761
11200 -2.117249250411987
11300 -2.082016944885254
11400 -2.311177492141724
11500 -2.328503131866455
11600 -2.266440868377686
11700 -2.409942865371704
11800 -2.320844411849976
11900 -2.255278825759888
12000 -2.294669628143311
12100 -2.554036855697632
12200 -2.268313884735107
12300 -2.248340606689453
12400 -2.304148435592651
12500 -2.108264684677124
12600 -2.419327259063721
12700 -2.403800725936890
12800 -2.424452543258667
12900 -2.231405496597290
13000 -2.120059013366699
13100 -2.436316251754761
13200 -2.499247550964355
13300 -2.338557481765747
13400 -2.248257637023926
13500 -2.574430942535400
13600 -2.252300977706909
13700 -2.176293134689331
13800 -2.470238208770752
13900 -2.299924612045288
14000 -2.468301534652710
14100 -2.267386198043823
14200 -2.025501489639282
14300 -2.014850616455078
14400 -2.398939609527588
14500 -2.512531042098999
14600 -2.529321193695068
14700 -2.040591001510620
14800 -2.279397726058960
14900 -2.440036296844482
15000 -2.541964292526245
15100 -2.069006919860840
15200 -2.310523509979248
15300 -2.278918027877808
15400 -2.535614252090454
15500 -2.349911212921143
15600 -2.308874368667603
15700 -2.019653081893921
15800 -2.108783245086670
15900 -2.576212167739868
16000 -2.637833833694458
16100 -2.200649738311768
16200 -2.015250921249390
16300 -2.200939893722534
16400 -2.573877096176147
16500 -2.349682331085205
16600 -2.181184291839600
16700 -2.258018255233765
16800 -2.412209033966064
16900 -2.371206760406494
17000 -2.277012109756470
17100 -2.118205070495605
17200 -2.254204034805298
17300 -2.399800300598145
17400 -2.514849662780762
17500 -2.528423786163330
17600 -2.351186513900757
17700 -2.220984458923340
17800 -2.344763278961182
17900 -2.428621530532837
18000 -2.559410572052002
18100 -2.554248094558716
18200 -2.670851469039917
18300 -2.150172710418701
18400 -2.213769912719727
18500 -2.176795005798340
18600 -2.284431934356689
18700 -2.281154394149780
18800 -2.419250249862671
18900 -2.419278383255005
19000 -2.265566825866699
19100 -2.146705627441406
19200 -2.215777635574341
19300 -2.253333568572998
19400 -2.420729398727417
19500 -2.287660598754883
19600 -2.368027448654175
19700 -2.127164602279663
19800 -2.477797985076904
19900 -2.359882116317749
20000 -2.555132865905762
