Leyendo file =fort.2 
Atomos leídos = 864
Leyendo posiciones y velocidades de archivo =fort.2 

File  cargados..
Box                       = {12.92355 12.92355 12.92355} 
Box Inversa               = {0.07738 0.07738 0.07738}
Box in Armstrongs         = {44.00469 44.00469 44.00469}
Pext red                  = 1.000000
Tau_T                     = 0.200000
Tau_T/time                = 100.000000
Tau_P                     = 0.200000
Tau_P/time                = 100.000000
******** Unidades reducidas ***************
Temperature               = 6.00000
Pext                      = 1.00000
Time Step (dt)            = 0.00200
Rcut                      = 4.00000
Rlist                     = 4.50000
Volumen Box               = 2158.467529
Alfa                      = 0.270000
Alfa LJ                   = 0.300000
Alfa LJ * sigma           = 1.021500
Nblocks=512      Nthreads=256          Grid=131072	
 Nvecinos = 148 
Leyendo archivo =fort.107 

File 107 cargados..
U_dpd = -1.632105

 No. de cargas           Nqs  = 0 
 Carga total del sistema   Q  = 0.000 
 Alfa de Ewald          a_ew  = 0.000 
 Parametro Beta*        beta  = 0.000 

 Setup is completed 
 Number of Wavevectors is 417 

 Energia Cinetica inicial  K0 = 8.765190 
 Energia Potencial inicial U0 = -1.632105 
 Temperatura inicial       T0 = 5.843460 

  Paso      time        EK       EU        ET        Temp        Pres 
et0 = 7.080843
   100     0.03200     8.99197     -1.86507     18.60462     5.99464     3.68254    0.00650 
   200     0.06400     9.14264     -1.62476     18.60482     6.09509     4.18109    0.06172 
   300     0.09600     9.21228     -1.69100     18.60429     6.14152     4.02240    0.06220 
   400     0.12800     9.00083     -1.73046     18.60497     6.00055     3.84440    0.02677 
   500     0.16000     8.98156     -1.85777     18.60490     5.98771     3.67863    0.00606 
   600     0.19200     8.91097     -1.64538     18.60427     5.94065     4.12713    0.02609 
   700     0.22400     9.08393     -1.69798     18.60438     6.05596     4.08766    0.04309 
   800     0.25600     8.99307     -1.72210     18.60425     5.99538     3.93629    0.02685 
   900     0.28800     8.81540     -1.79611     18.60410     5.87693     3.72891    0.00869 
   1000     0.32000     8.93691     -1.66881     18.60415     5.95794     4.00162    0.02644 
   1100     0.35200     9.42921     -1.75256     18.60402     6.28614     3.88282    0.08414 
   1200     0.38400     9.05815     -1.67554     18.60392     6.03877     4.10265    0.04262 
   1300     0.41600     9.20667     -1.59264     18.60353     6.13778     4.24612    0.07530 
   1400     0.44800     9.15147     -1.79097     18.60378     6.10098     3.86350    0.03950 
   1500     0.48000     8.87716     -1.82050     18.60342     5.91811     3.72282    0.00342 
   1600     0.51200     8.83756     -1.83865     18.60342     5.89171     3.60074    0.01157 
   1700     0.54400     8.86689     -1.75448     18.60371     5.91126     3.82534    0.00446 
   1800     0.57600     9.43878     -1.75076     18.60363     6.29252     4.00488    0.08575 
   1900     0.60800     8.76419     -1.69565     18.60355     5.84280     3.93330    0.00174 
   2000     0.64000     8.67307     -1.62102     18.60393     5.78204     4.08604    0.00407 
   2100     0.67200     9.24501     -1.63434     18.60379     6.16334     4.29798    0.07483 
   2200     0.70400     9.02073     -1.83751     18.60357     6.01382     3.74252    0.01446 
   2300     0.73600     8.61346     -1.77734     18.60380     5.74231     3.74790    0.03456 
   2400     0.76800     8.87141     -1.76188     18.60363     5.91427     3.91308    0.00405 
   2500     0.80000     9.08410     -1.71566     18.60361     6.05606     3.98547    0.04062 
   2600     0.83200     8.99731     -1.61850     18.60368     5.99820     4.08655    0.04208 
   2700     0.86400     8.90312     -1.70076     18.60376     5.93541     3.98510    0.01716 
   2800     0.89600     8.49011     -1.75045     18.60368     5.66007     3.73077    0.04818 
   2900     0.92800     9.00514     -1.89328     18.60325     6.00343     3.51500    0.00438 
   3000     0.96000     9.06550     -1.66183     18.60345     6.04367     4.07694    0.04559 
   3100     0.99200     9.17766     -1.66344     18.60372     6.11844     4.00053    0.06120 
   3200     1.02400     8.76478     -1.51725     18.60358     5.84318     4.32104    0.02354 
   3300     1.05600     8.86486     -1.80493     18.60322     5.90991     3.73336    0.00295 
   3400     1.08800     9.18666     -1.68524     18.60322     6.12444     4.11024    0.05940 
   3500     1.12000     9.22611     -1.58402     18.60314     6.15074     4.37109    0.07926 
   3600     1.15200     9.11427     -1.65940     18.60288     6.07618     4.10493    0.05282 
   3700     1.18400     8.71996     -1.86013     18.60297     5.81331     3.58351    0.03121 
   3800     1.21600     9.10120     -1.71191     18.60341     6.06747     3.92372    0.04356 
   3900     1.24800     9.12265     -1.83550     18.60306     6.08177     3.69474    0.02914 
   4000     1.28000     8.96830     -1.83063     18.60333     5.97887     3.60829    0.00803 
   4100     1.31200     8.71799     -1.75074     18.60309     5.81199     3.77624    0.01604 
   4200     1.34400     9.09306     -1.85135     18.60301     6.06204     3.80632    0.02272 
   4300     1.37600     9.40318     -1.77783     18.60309     6.26878     3.91757    0.07690 
   4400     1.40800     8.95426     -1.82278     18.60327     5.96950     3.63133    0.00715 
   4500     1.44000     8.56250     -1.72697     18.60337     5.70834     3.74217    0.03464 
   4600     1.47200     8.97953     -1.68039     18.60335     5.98636     4.01887    0.03083 
   4700     1.50400     8.77623     -1.78738     18.60339     5.85082     3.71085    0.01299 
   4800     1.53600     9.19323     -1.80775     18.60273     6.12882     3.75340    0.04302 
   4900     1.56800     8.88905     -1.62575     18.60301     5.92603     4.07542    0.02577 
   5000     1.60000     8.75187     -1.70247     18.60298     5.83458     4.03290    0.00444 
   5100     1.63200     9.30748     -1.79533     18.60302     6.20498     3.80300    0.06091 
   5200     1.66400     9.04568     -1.75587     18.60298     6.03046     3.82390    0.02951 
   5300     1.69600     8.86329     -1.73983     18.60292     5.90886     3.84369    0.00602 
   5400     1.72800     9.26001     -1.73813     18.60313     6.17334     3.89910    0.06229 
   5500     1.76000     9.58828     -1.80085     18.60297     6.39218     3.97547    0.09979 
   5600     1.79200     8.97803     -1.84311     18.60302     5.98535     3.63172    0.00764 
   5700     1.82400     8.71551     -1.64748     18.60299     5.81034     3.96078    0.00181 
   5800     1.85600     8.96392     -1.58832     18.60312     5.97595     4.24326    0.04163 
   5900     1.88800     9.35908     -1.71469     18.60318     6.23939     4.04450    0.07959 
   6000     1.92000     9.33839     -1.81646     18.60312     6.22559     3.82061    0.06229 
   6100     1.95200     8.78500     -1.84498     18.60336     5.85667     3.61097    0.01989 
   6200     1.98400     8.69469     -1.71194     18.60318     5.79646     3.84083    0.01385 
   6300     2.01600     8.98030     -1.65914     18.60305     5.98687     3.97081    0.03394 
   6400     2.04800     9.56437     -1.69760     18.60320     6.37625     4.08474    0.11099 
   6500     2.08000     9.45843     -1.79233     18.60299     6.30562     3.87402    0.08265 
   6600     2.11200     8.67209     -1.71832     18.60342     5.78139     3.85345    0.01795 
   6700     2.14400     8.71578     -1.78385     18.60352     5.81052     3.62682    0.02103 
   6800     2.17600     9.27382     -1.83065     18.60333     6.18255     3.71227    0.05117 
   6900     2.20800     9.42211     -1.87598     18.60344     6.28141     3.67467    0.06571 
   7000     2.24000     8.41873     -1.78896     18.60352     5.61249     3.55728    0.06370 
   7100     2.27200     8.93366     -1.75502     18.60359     5.95578     3.83453    0.01381 
   7200     2.30400     9.64320     -1.68925     18.60356     6.42880     4.15977    0.12331 
   7300     2.33600     9.14606     -1.70844     18.60342     6.09738     3.95373    0.05039 
   7400     2.36800     9.13142     -1.74230     18.60370     6.08762     3.83898    0.04354 
   7500     2.40000     8.97280     -1.79329     18.60354     5.98187     3.76303    0.01393 
   7600     2.43200     8.81260     -1.64427     18.60328     5.87507     4.07068    0.01236 
   7700     2.46400     9.07772     -1.69550     18.60364     6.05181     3.94969    0.04256 
   7800     2.49600     8.81986     -1.65776     18.60362     5.87991     3.96982    0.01148 
   7900     2.52800     8.68520     -1.73947     18.60378     5.79014     3.80296    0.01908 
   8000     2.56000     9.01140     -1.75632     18.60351     6.00760     3.79966    0.02461 
   8100     2.59200     8.83883     -1.75628     18.60340     5.89255     3.82053    0.00024 
   8200     2.62400     9.28628     -1.78060     18.60367     6.19085     3.78722    0.06000 
   8300     2.65600     8.87172     -1.76375     18.60377     5.91448     3.72400    0.00383 
   8400     2.68800     9.05919     -1.79377     18.60381     6.03946     3.78808    0.02607 
   8500     2.72000     9.01311     -1.79301     18.60359     6.00874     3.76784    0.01967 
   8600     2.75200     8.89841     -1.73783     18.60358     5.93228     3.74344    0.01126 
   8700     2.78400     8.94638     -1.69700     18.60395     5.96425     3.94047    0.02380 
   8800     2.81600     8.85532     -1.72050     18.60363     5.90355     3.93837    0.00762 
   8900     2.84800     8.89909     -1.76542     18.60334     5.93272     3.74767    0.00746 
   9000     2.88000     8.99212     -1.59617     18.60405     5.99474     4.22986    0.04450 
   9100     2.91200     9.17355     -1.87048     18.60360     6.11570     3.61500    0.03138 
   9200     2.94400     9.17081     -1.78719     18.60354     6.11387     3.86732    0.04276 
   9300     2.97600     9.17923     -1.78245     18.60342     6.11949     3.79849    0.04462 
   9400     3.00800     9.14545     -1.74376     18.60369     6.09697     3.88622    0.04531 
   9500     3.04000     9.21346     -1.78154     18.60364     6.14231     3.92509    0.04958 
   9600     3.07200     8.96299     -1.65451     18.60383     5.97533     4.10927    0.03215 
   9700     3.10400     8.99352     -1.73752     18.60372     5.99568     3.82253    0.02474 
   9800     3.13600     8.84250     -1.81270     18.60364     5.89500     3.69024    0.00721 
   9900     3.16800     8.99366     -1.89201     18.60306     5.99577     3.57145    0.00294 
   10000     3.20000     8.58861     -1.88077     18.60312     5.72574     3.44204    0.05268 
   10100     3.23200     8.81157     -1.78839     18.60323     5.87438     3.71783    0.00814 
   10200     3.26400     9.29596     -1.71456     18.60308     6.19730     4.03996    0.07069 
   10300     3.29600     9.23481     -1.70411     18.60336     6.15654     3.97945    0.06353 
   10400     3.32800     8.88958     -1.72594     18.60315     5.92638     3.86623    0.01169 
   10500     3.36000     8.85459     -1.67323     18.60281     5.90306     4.02687    0.01419 
   10600     3.39200     9.12661     -1.78642     18.60274     6.08441     3.85635    0.03663 
   10700     3.42400     9.08201     -1.81408     18.60275     6.05467     3.67908    0.02642 
   10800     3.45600     8.65191     -1.77393     18.60305     5.76794     3.66294    0.02865 
   10900     3.48800     8.53207     -1.62963     18.60325     5.68804     3.99781    0.02520 
   11000     3.52000     9.33849     -1.64438     18.60313     6.22566     4.18787    0.08661 
   11100     3.55200     9.42324     -1.65439     18.60322     6.28216     4.12962    0.09716 
   11200     3.58400     9.22345     -1.74673     18.60287     6.14897     3.95072    0.05591 
   11300     3.61600     8.63272     -1.84022     18.60260     5.75514     3.56707    0.04072 
   11400     3.64800     8.65567     -1.70975     18.60276     5.77045     3.94102    0.01905 
   11500     3.68000     9.27968     -1.76917     18.60247     6.18645     4.00399    0.06068 
   11600     3.71200     9.71019     -1.73757     18.60272     6.47346     4.02377    0.12594 
   11700     3.74400     8.99503     -1.62953     18.60252     5.99669     4.03341    0.04020 
   11800     3.77600     8.89655     -1.77848     18.60232     5.93104     3.77953    0.00526 
   11900     3.80800     8.70924     -1.65699     18.60302     5.80616     4.00373    0.00404 
   12000     3.84000     8.95807     -1.77075     18.60310     5.97205     3.77162    0.01504 
   12100     3.87200     9.18816     -1.65601     18.60309     6.12544     4.11214    0.06374 
   12200     3.90400     8.93808     -1.80780     18.60309     5.95872     3.64712    0.00698 
   12300     3.93600     8.78250     -1.70073     18.60273     5.85500     3.99236    0.00013 
   12400     3.96800     8.82426     -1.73235     18.60278     5.88284     3.91102    0.00156 
   12500     4.00000     8.99928     -1.70761     18.60300     5.99952     3.92206    0.02977 
   12600     4.03200     9.33190     -1.79211     18.60280     6.22126     3.78504    0.06481 
   12700     4.06400     9.07065     -1.81635     18.60280     6.04710     3.73580    0.02450 
   12800     4.09600     8.79728     -1.65638     18.60276     5.86485     3.95658    0.00848 
   12900     4.12800     9.15675     -1.76765     18.60227     6.10450     3.92624    0.04353 
   13000     4.16000     9.39555     -1.64085     18.60242     6.26370     4.24180    0.09517 
   13100     4.19200     9.01630     -1.75604     18.60284     6.01087     3.79844    0.02534 
   13200     4.22400     9.22026     -1.73969     18.60264     6.14684     3.86044    0.05645 
   13300     4.25600     9.07498     -1.68002     18.60249     6.04999     4.09051    0.04436 
   13400     4.28800     9.22465     -1.82504     18.60253     6.14977     3.77171    0.04502 
   13500     4.32000     9.20875     -1.73077     18.60259     6.13917     4.04618    0.05609 
   13600     4.35200     8.74651     -1.75612     18.60275     5.83101     3.76095    0.01277 
   13700     4.38400     8.63011     -1.71282     18.60281     5.75341     3.78560    0.02310 
   13800     4.41600     8.91117     -1.70230     18.60240     5.94078     3.93009    0.01808 
   13900     4.44800     9.11964     -1.65547     18.60254     6.07976     4.17857    0.05414 
   14000     4.48000     8.81373     -1.63414     18.60231     5.87582     4.07654    0.01395 
   14100     4.51200     8.88118     -1.74272     18.60225     5.92078     3.86053    0.00814 
   14200     4.54400     9.01400     -1.78257     18.60244     6.00933     3.88602    0.02127 
   14300     4.57600     8.92024     -1.70043     18.60246     5.94683     3.91568    0.01963 
   14400     4.60800     8.54694     -1.68189     18.60282     5.69796     3.87266    0.03047 
   14500     4.64000     9.07763     -1.80218     18.60262     6.05175     3.70348    0.02748 
   14600     4.67200     9.15408     -1.84627     18.60245     6.10272     3.64268    0.03205 
   14700     4.70400     9.22001     -1.71039     18.60264     6.14667     3.98429    0.06055 
   14800     4.73600     9.26086     -1.78000     18.60269     6.17391     3.83679    0.05649 
   14900     4.76800     8.87757     -1.77880     18.60228     5.91838     3.83957    0.00253 
   15000     4.80000     9.09976     -1.89276     18.60232     6.06651     3.54228    0.01782 
   15100     4.83200     9.30969     -1.69172     18.60251     6.20646     4.04847    0.07586 
   15200     4.86400     9.25183     -1.86006     18.60248     6.16789     3.60257    0.04391 
   15300     4.89600     8.57802     -1.76429     18.60252     5.71868     3.71474    0.03772 
   15400     4.92800     8.50727     -1.92732     18.60221     5.67151     3.38701    0.07074 
   15500     4.96000     9.14260     -1.66109     18.60220     6.09506     4.09740    0.05658 
   15600     4.99200     9.57678     -1.72535     18.60205     6.38452     4.11458    0.10883 
   15700     5.02400     9.13489     -1.73644     18.60204     6.08993     3.97413    0.04485 
   15800     5.05600     8.89120     -1.74921     18.60250     5.92747     3.85439    0.00864 
   15900     5.08800     9.06095     -1.83812     18.60213     6.04063     3.70753    0.02005 
   16000     5.12000     9.05538     -1.72221     18.60207     6.03692     3.96220    0.03564 
   16100     5.15200     8.87539     -1.64505     18.60221     5.91693     3.96873    0.02111 
   16200     5.18400     9.12907     -1.64256     18.60196     6.08604     4.16652    0.05729 
   16300     5.21600     8.72438     -1.73122     18.60175     5.81625     3.93939    0.01238 
   16400     5.24800     8.92698     -1.79135     18.60177     5.95132     3.71990    0.00774 
   16500     5.28000     9.18958     -1.82259     18.60150     6.12638     3.79084    0.04041 
   16600     5.31200     8.80655     -1.71960     18.60198     5.87103     3.93302    0.00086 
   16700     5.34400     9.01882     -1.95160     18.60160     6.01255     3.49282    0.00192 
   16800     5.37600     9.17341     -1.68625     18.60183     6.11560     4.01655    0.05738 
   16900     5.40800     9.16682     -1.80287     18.60167     6.11121     3.75967    0.03998 
   17000     5.44000     8.87826     -1.83121     18.60151     5.91884     3.71493    0.00477 
   17100     5.47200     8.43087     -1.70413     18.60155     5.62058     3.85275    0.05001 
   17200     5.50400     8.58542     -1.72597     18.60164     5.72362     3.84081    0.03127 
   17300     5.53600     8.94403     -1.74248     18.60150     5.96269     3.78147    0.01705 
   17400     5.56800     9.05226     -1.62526     18.60138     6.03484     4.09580    0.04889 
   17500     5.60000     8.98227     -1.66702     18.60174     5.98818     4.00376    0.03310 
   17600     5.63200     8.46418     -1.74580     18.60121     5.64279     3.66544    0.05119 
   17700     5.66400     8.86924     -1.81633     18.60158     5.91283     3.69271    0.00394 
   17800     5.69600     9.21698     -1.69271     18.60184     6.14465     4.12148    0.06262 
   17900     5.72800     9.09481     -1.85212     18.60190     6.06321     3.75343    0.02286 
   18000     5.76000     9.09074     -1.80995     18.60169     6.06049     3.83383    0.02824 
   18100     5.79200     8.82903     -1.81231     18.60181     5.88602     3.64170    0.00906 
   18200     5.82400     9.06195     -1.73256     18.60156     6.04130     3.84831    0.03510 
   18300     5.85600     8.86263     -1.77271     18.60134     5.90842     3.75802    0.00128 
   18400     5.88800     8.87347     -1.72937     18.60172     5.91565     3.87960    0.00893 
   18500     5.92000     8.74275     -1.78326     18.60173     5.82850     3.72777    0.01714 
   18600     5.95200     9.03464     -1.76759     18.60156     6.02309     3.78906    0.02630 
   18700     5.98400     8.74773     -1.57859     18.60158     5.83182     4.12525    0.01247 
   18800     6.01600     8.70310     -1.81132     18.60148     5.80207     3.63968    0.02670 
   18900     6.04800     8.93276     -1.69921     18.60132     5.95518     4.02147    0.02157 
   19000     6.08000     9.48746     -1.77804     18.60196     6.32497     3.93132    0.08877 
   19100     6.11200     9.11442     -1.63578     18.60168     6.07628     4.03379    0.05618 
   19200     6.14400     8.81622     -1.64837     18.60145     5.87748     4.05094    0.01229 
   19300     6.17600     9.18348     -1.87597     18.60161     6.12232     3.62613    0.03201 
   19400     6.20800     9.37146     -1.82333     18.60145     6.24764     3.78662    0.06599 
   19500     6.24000     9.04046     -1.67188     18.60113     6.02697     4.07629    0.04064 
   19600     6.27200     9.13813     -1.84192     18.60137     6.09208     3.63829    0.03041 
   19700     6.30400     8.73527     -1.71375     18.60119     5.82352     3.81620    0.00838 
   19800     6.33600     8.62351     -1.76866     18.60151     5.74901     3.76333    0.03192 
   19900     6.36800     9.12911     -1.80108     18.60120     6.08607     3.73368    0.03491 
   20000     6.40000     9.24650     -1.63674     18.60160     6.16433     4.15346    0.07470 

+++++++++++ UNIDADES REDUCIDAS +++++++++++++++
 <EK>		= 8.994466	+- 0.248316 
 <EP>		= -1.736891	+- 0.081320 
 <ETOT>		= 18.602402	+- 0.122659 
 <TEMP>		= 5.996313	+- 0.165440 
 <PRES>		= 3.885924	+- 0.189347 
<ERROR>                = 0.035615    +- 0.026332 
 Rho* = 0.400284 
++++++++++++++++++++++++++++++++++++++++++++++++


+++++++++++ UNIDADES REALES +++++++++++++++
<EK>	en kJ/mol		8.958643
<EP>	en kJ/mol		-1.729973
<ET>	en kJ/mol		18.528315
<PRESS>	en atm			1607.040527
<TEMP>	en K			718.358337
<DENS>	en gr/cm3		0.672600
++++++++++++++++++++++++++++++++++++++++++++++++

 Printeando configuracion final ...
 Cerrando el file film.xyz 
Saving etas on fort.107

 Update List every 8 steps 

 Tiempo alcanzado 78.652 ps 

 Tiempo de ejecucion 0.894 m 

  126.646 (nanoseconds/day) 


